{
  "version-0.8.0/docs": [
    {
      "collapsed": true,
      "type": "category",
      "label": "Intro",
      "items": [
        {
          "type": "doc",
          "id": "version-0.8.0/intro/introduction"
        },
        {
          "type": "doc",
          "id": "version-0.8.0/intro/installation"
        },
        {
          "type": "doc",
          "id": "version-0.8.0/intro/editor-support"
        }
      ]
    },
    {
      "collapsed": true,
      "type": "category",
      "label": "Language Basics",
      "items": [
        {
          "type": "doc",
          "id": "version-0.8.0/language-basics/types"
        },
        {
          "type": "doc",
          "id": "version-0.8.0/language-basics/constants-and-variables"
        },
        {
          "type": "doc",
          "id": "version-0.8.0/language-basics/math-numbers-tez"
        },
        {
          "type": "doc",
          "id": "version-0.8.0/language-basics/strings"
        },
        {
          "type": "doc",
          "id": "version-0.8.0/language-basics/functions"
        },
        {
          "type": "doc",
          "id": "version-0.8.0/language-basics/boolean-if-else"
        },
        {
          "type": "doc",
          "id": "version-0.8.0/language-basics/loops"
        },
        {
          "type": "doc",
          "id": "version-0.8.0/language-basics/unit-option-pattern-matching"
        },
        {
          "type": "doc",
          "id": "version-0.8.0/language-basics/maps-records"
        },
        {
          "type": "doc",
          "id": "version-0.8.0/language-basics/sets-lists-tuples"
        },
        {
          "type": "doc",
          "id": "version-0.8.0/language-basics/exceptions"
        },
        {
          "type": "doc",
          "id": "version-0.8.0/language-basics/tezos-specific"
        }
      ]
    },
    {
      "collapsed": true,
      "type": "category",
      "label": "Advanced",
      "items": [
        {
          "type": "doc",
          "id": "version-0.8.0/advanced/timestamps-addresses"
        },
        {
          "type": "doc",
          "id": "version-0.8.0/advanced/entrypoints-contracts"
        },
        {
          "type": "doc",
          "id": "version-0.8.0/advanced/include"
        },
        {
          "type": "doc",
          "id": "version-0.8.0/advanced/first-contract"
        },
        {
          "type": "doc",
          "id": "version-0.8.0/advanced/michelson-and-ligo"
        },
        {
          "type": "doc",
          "id": "version-0.8.0/advanced/inline"
        },
        {
          "type": "doc",
          "id": "version-0.8.0/advanced/interop"
        },
        {
          "type": "doc",
          "id": "version-0.8.0/advanced/embedded-michelson"
        }
      ]
    },
    {
      "collapsed": true,
      "type": "category",
      "label": "Reference",
      "items": [
        {
          "type": "doc",
          "id": "version-0.8.0/api/cli-commands"
        },
        {
          "type": "doc",
          "id": "version-0.8.0/api/cheat-sheet"
        }
      ]
    },
    {
      "collapsed": true,
      "type": "category",
      "label": "API",
      "items": [
        {
          "type": "doc",
          "id": "version-0.8.0/reference/toplevel"
        },
        {
          "type": "doc",
          "id": "version-0.8.0/reference/big-map-reference"
        },
        {
          "type": "doc",
          "id": "version-0.8.0/reference/bitwise-reference"
        },
        {
          "type": "doc",
          "id": "version-0.8.0/reference/bytes-reference"
        },
        {
          "type": "doc",
          "id": "version-0.8.0/reference/crypto-reference"
        },
        {
          "type": "doc",
          "id": "version-0.8.0/reference/list-reference"
        },
        {
          "type": "doc",
          "id": "version-0.8.0/reference/map-reference"
        },
        {
          "type": "doc",
          "id": "version-0.8.0/reference/set-reference"
        },
        {
          "type": "doc",
          "id": "version-0.8.0/reference/string-reference"
        },
        {
          "type": "doc",
          "id": "version-0.8.0/reference/current-reference"
        }
      ]
    }
  ],
  "version-0.8.0/contributors-docs": [
    {
      "collapsed": true,
      "type": "category",
      "label": "Introduction",
      "items": [
        {
          "type": "doc",
          "id": "version-0.8.0/contributors/origin"
        },
        {
          "type": "doc",
          "id": "version-0.8.0/contributors/philosophy"
        },
        {
          "type": "doc",
          "id": "version-0.8.0/contributors/getting-started"
        },
        {
          "type": "doc",
          "id": "version-0.8.0/contributors/documentation-and-releases"
        }
      ]
    },
    {
      "collapsed": true,
      "type": "category",
      "label": "Big Picture",
      "items": [
        {
          "type": "doc",
          "id": "version-0.8.0/contributors/big-picture/overview"
        },
        {
          "type": "doc",
          "id": "version-0.8.0/contributors/big-picture/front-end"
        },
        {
          "type": "doc",
          "id": "version-0.8.0/contributors/big-picture/middle-end"
        },
        {
          "type": "doc",
          "id": "version-0.8.0/contributors/big-picture/back-end"
        },
        {
          "type": "doc",
          "id": "version-0.8.0/contributors/big-picture/vendors"
        }
      ]
    },
    {
      "collapsed": true,
      "type": "category",
      "label": "Road Map",
      "items": [
        {
          "type": "doc",
          "id": "version-0.8.0/contributors/road-map/short-term"
        },
        {
          "type": "doc",
          "id": "version-0.8.0/contributors/road-map/long-term"
        }
      ]
    }
  ],
  "version-0.8.0/tutorials": [
    {
      "collapsed": true,
      "type": "category",
      "label": "Get Started",
      "items": [
        {
          "type": "doc",
          "id": "version-0.8.0/tutorials/get-started/tezos-taco-shop-smart-contract"
        },
        {
          "type": "doc",
          "id": "version-0.8.0/tutorials/get-started/tezos-taco-shop-payout"
        }
      ]
    }
  ]
}
